('C:\\Prive\\pipotronicentretienannuel\\build\\genEnt\\out00-PKG.pkg',
 {'BINARY': 1,
  'DATA': 1,
  'EXECUTABLE': 1,
  'EXTENSION': 1,
  'PYMODULE': 1,
  'PYSOURCE': 1,
  'PYZ': 0},
 [('out00-PYZ.pyz',
   'C:\\Prive\\pipotronicentretienannuel\\build\\genEnt\\out00-PYZ.pyz',
   'PYZ'),
  ('struct', 'c:\\python34\\lib\\struct.pyo', 'PYMODULE'),
  ('pyimod01_os_path',
   'c:\\python34\\lib\\site-packages\\PyInstaller\\loader\\pyimod01_os_path.pyc',
   'PYMODULE'),
  ('pyimod02_archive',
   'c:\\python34\\lib\\site-packages\\PyInstaller\\loader\\pyimod02_archive.pyc',
   'PYMODULE'),
  ('pyimod03_importers',
   'c:\\python34\\lib\\site-packages\\PyInstaller\\loader\\pyimod03_importers.pyc',
   'PYMODULE'),
  ('pyiboot01_bootstrap',
   'c:\\python34\\lib\\site-packages\\PyInstaller\\loader\\pyiboot01_bootstrap.py',
   'PYSOURCE'),
  ('genEnt', 'C:\\Prive\\pipotronicentretienannuel\\genEnt.py', 'PYSOURCE'),
  ('genEnt.exe.manifest',
   'C:\\Prive\\pipotronicentretienannuel\\build\\genEnt\\genEnt.exe.manifest',
   'BINARY')],
 True,
 False,
 False)
