([('genEnt.exe',
   'C:\\Prive\\pipotronicentretienannuel\\build\\genEnt\\genEnt.exe',
   'EXECUTABLE'),
  ('genEnt.exe.manifest',
   'C:\\Prive\\pipotronicentretienannuel\\build\\genEnt\\genEnt.exe.manifest',
   'BINARY'),
  ('python34.dll', 'c:\\python34\\python34.dll', 'BINARY'),
  ('MSVCR100.dll', 'c:\\python34\\MSVCR100.dll', 'BINARY'),
  ('_ssl', 'c:\\python34\\DLLs\\_ssl.pyd', 'EXTENSION'),
  ('unicodedata', 'c:\\python34\\DLLs\\unicodedata.pyd', 'EXTENSION'),
  ('_ctypes', 'c:\\python34\\DLLs\\_ctypes.pyd', 'EXTENSION'),
  ('pyexpat', 'c:\\python34\\DLLs\\pyexpat.pyd', 'EXTENSION'),
  ('_hashlib', 'c:\\python34\\DLLs\\_hashlib.pyd', 'EXTENSION'),
  ('select', 'c:\\python34\\DLLs\\select.pyd', 'EXTENSION'),
  ('_bz2', 'c:\\python34\\DLLs\\_bz2.pyd', 'EXTENSION'),
  ('_lzma', 'c:\\python34\\DLLs\\_lzma.pyd', 'EXTENSION'),
  ('_socket', 'c:\\python34\\DLLs\\_socket.pyd', 'EXTENSION'),
  ('_elementtree', 'c:\\python34\\DLLs\\_elementtree.pyd', 'EXTENSION'),
  ('base_library.zip',
   'C:\\Prive\\pipotronicentretienannuel\\build\\genEnt\\base_library.zip',
   'DATA'),
  ('Include\\pyconfig.h', 'c:\\python34\\Include\\pyconfig.h', 'DATA')],)
